\BOOKMARK [1][-]{section.1}{Inscription \340 la plateforme}{}% 1
\BOOKMARK [2][-]{subsection.1.1}{Acc\351der \340 la plateforme}{section.1}% 2
\BOOKMARK [2][-]{subsection.1.2}{S'inscrire sur la plateforme}{section.1}% 3
\BOOKMARK [1][-]{section.2}{Interface de la plateforme}{}% 4
\BOOKMARK [2][-]{subsection.2.1}{Se connecter}{section.2}% 5
\BOOKMARK [2][-]{subsection.2.2}{Menu de l'application}{section.2}% 6
\BOOKMARK [2][-]{subsection.2.3}{se d\351connecter}{section.2}% 7
\BOOKMARK [1][-]{section.3}{Rublique "Mon Commerce"}{}% 8
\BOOKMARK [2][-]{subsection.3.1}{Consulter les informations de mon commerce}{section.3}% 9
\BOOKMARK [2][-]{subsection.3.2}{Modifier les informations de mon commerce}{section.3}% 10
\BOOKMARK [2][-]{subsection.3.3}{Consulter la liste de mes clients}{section.3}% 11
\BOOKMARK [1][-]{section.4}{Rubrique "Partenariat"}{}% 12
\BOOKMARK [2][-]{subsection.4.1}{Consulter la liste des clients de la plateforme}{section.4}% 13
\BOOKMARK [2][-]{subsection.4.2}{Consulter la liste des commer\347ants partenaires}{section.4}% 14
\BOOKMARK [2][-]{subsection.4.3}{Consulter les informations d'un autre commer\347ant de la plateforme}{section.4}% 15
\BOOKMARK [1][-]{section.5}{Rubrique "Clients"}{}% 16
\BOOKMARK [2][-]{subsection.5.1}{Rechercher un client}{section.5}% 17
\BOOKMARK [2][-]{subsection.5.2}{Inscrire un client}{section.5}% 18
\BOOKMARK [2][-]{subsection.5.3}{Consulter les informations d'un client}{section.5}% 19
\BOOKMARK [2][-]{subsection.5.4}{Modifier les informations d'un client}{section.5}% 20
\BOOKMARK [1][-]{section.6}{Rubrique "Transactions"}{}% 21
\BOOKMARK [2][-]{subsection.6.1}{Enregistrer une transaction}{section.6}% 22
\BOOKMARK [1][-]{section.7}{Rubrique "Fid\351lit\351"}{}% 23
\BOOKMARK [2][-]{subsection.7.1}{S\351lectionner un mode de fid\351lit\351}{section.7}% 24
\BOOKMARK [2][-]{subsection.7.2}{D\351finir un seuil de fid\351lit\351}{section.7}% 25
\BOOKMARK [1][-]{section.8}{Rubrique "Communication"}{}% 26
\BOOKMARK [2][-]{subsection.8.1}{Envoyer une newsletter}{section.8}% 27
\BOOKMARK [1][-]{section.9}{Rubrique "Statistiques"}{}% 28
\BOOKMARK [2][-]{subsection.9.1}{Consulter les statistiques de mon commerce}{section.9}% 29
\BOOKMARK [1][-]{section.10}{Abonnements}{}% 30
\BOOKMARK [2][-]{subsection.10.1}{Tarif}{section.10}% 31
\BOOKMARK [2][-]{subsection.10.2}{Renouvellement}{section.10}% 32
