\select@language {french}
\contentsline {section}{\numberline {1}Inscription \IeC {\`a} la plateforme}{3}{section.1}
\contentsline {subsection}{\numberline {1.1}Acc\IeC {\'e}der \IeC {\`a} la plateforme}{3}{subsection.1.1}
\contentsline {paragraph}{}{3}{section*.2}
\contentsline {paragraph}{}{3}{section*.3}
\contentsline {subsection}{\numberline {1.2}S'inscrire sur la plateforme}{4}{subsection.1.2}
\contentsline {paragraph}{}{4}{section*.4}
\contentsline {paragraph}{}{5}{section*.5}
\contentsline {paragraph}{}{5}{section*.6}
\contentsline {section}{\numberline {2}Interface de la plateforme}{6}{section.2}
\contentsline {subsection}{\numberline {2.1}Se connecter}{6}{subsection.2.1}
\contentsline {paragraph}{}{6}{section*.7}
\contentsline {paragraph}{}{6}{section*.8}
\contentsline {subsection}{\numberline {2.2}Menu de l'application}{7}{subsection.2.2}
\contentsline {paragraph}{}{7}{section*.9}
\contentsline {paragraph}{}{7}{section*.10}
\contentsline {paragraph}{}{7}{section*.11}
\contentsline {paragraph}{}{7}{section*.12}
\contentsline {subsection}{\numberline {2.3}se d\IeC {\'e}connecter}{8}{subsection.2.3}
\contentsline {paragraph}{}{8}{section*.13}
\contentsline {paragraph}{}{8}{section*.14}
\contentsline {section}{\numberline {3}Rublique "Mon Commerce"}{9}{section.3}
\contentsline {subsection}{\numberline {3.1}Consulter les informations de mon commerce}{9}{subsection.3.1}
\contentsline {paragraph}{}{9}{section*.15}
\contentsline {paragraph}{}{9}{section*.16}
\contentsline {subsection}{\numberline {3.2}Modifier les informations de mon commerce}{10}{subsection.3.2}
\contentsline {paragraph}{}{10}{section*.17}
\contentsline {paragraph}{}{10}{section*.18}
\contentsline {paragraph}{}{10}{section*.19}
\contentsline {subsection}{\numberline {3.3}Consulter la liste de mes clients}{11}{subsection.3.3}
\contentsline {paragraph}{}{11}{section*.20}
\contentsline {paragraph}{}{11}{section*.21}
\contentsline {section}{\numberline {4}Rubrique "Partenariat"}{12}{section.4}
\contentsline {subsection}{\numberline {4.1}Consulter la liste des clients de la plateforme}{12}{subsection.4.1}
\contentsline {paragraph}{}{12}{section*.22}
\contentsline {subsection}{\numberline {4.2}Consulter la liste des commer\IeC {\c c}ants partenaires}{12}{subsection.4.2}
\contentsline {subsection}{\numberline {4.3}Consulter les informations d'un autre commer\IeC {\c c}ant de la plateforme}{12}{subsection.4.3}
\contentsline {section}{\numberline {5}Rubrique "Clients"}{13}{section.5}
\contentsline {subsection}{\numberline {5.1}Rechercher un client}{13}{subsection.5.1}
\contentsline {paragraph}{}{13}{section*.23}
\contentsline {subsection}{\numberline {5.2}Inscrire un client}{14}{subsection.5.2}
\contentsline {paragraph}{}{14}{section*.24}
\contentsline {paragraph}{}{14}{section*.25}
\contentsline {paragraph}{}{14}{section*.26}
\contentsline {subsection}{\numberline {5.3}Consulter les informations d'un client}{15}{subsection.5.3}
\contentsline {paragraph}{}{15}{section*.27}
\contentsline {paragraph}{}{15}{section*.28}
\contentsline {subsection}{\numberline {5.4}Modifier les informations d'un client}{16}{subsection.5.4}
\contentsline {paragraph}{}{16}{section*.29}
\contentsline {paragraph}{}{16}{section*.30}
\contentsline {paragraph}{}{16}{section*.31}
\contentsline {section}{\numberline {6}Rubrique "Transactions"}{17}{section.6}
\contentsline {subsection}{\numberline {6.1}Enregistrer une transaction}{17}{subsection.6.1}
\contentsline {paragraph}{}{17}{section*.32}
\contentsline {paragraph}{}{17}{section*.33}
\contentsline {paragraph}{}{18}{section*.34}
\contentsline {section}{\numberline {7}Rubrique "Fid\IeC {\'e}lit\IeC {\'e}"}{19}{section.7}
\contentsline {subsection}{\numberline {7.1}S\IeC {\'e}lectionner un mode de fid\IeC {\'e}lit\IeC {\'e}}{19}{subsection.7.1}
\contentsline {paragraph}{}{19}{section*.35}
\contentsline {paragraph}{}{19}{section*.36}
\contentsline {subsection}{\numberline {7.2}D\IeC {\'e}finir un seuil de fid\IeC {\'e}lit\IeC {\'e}}{20}{subsection.7.2}
\contentsline {paragraph}{}{20}{section*.37}
\contentsline {paragraph}{}{20}{section*.38}
\contentsline {section}{\numberline {8}Rubrique "Communication"}{21}{section.8}
\contentsline {subsection}{\numberline {8.1}Envoyer une newsletter}{21}{subsection.8.1}
\contentsline {section}{\numberline {9}Rubrique "Statistiques"}{22}{section.9}
\contentsline {subsection}{\numberline {9.1}Consulter les statistiques de mon commerce}{22}{subsection.9.1}
\contentsline {section}{\numberline {10}Abonnements}{23}{section.10}
\contentsline {subsection}{\numberline {10.1}Tarif}{23}{subsection.10.1}
\contentsline {paragraph}{Notre plateforme}{23}{section*.39}
\contentsline {subsection}{\numberline {10.2}Renouvellement}{23}{subsection.10.2}
\contentsline {paragraph}{Le renouvellement}{23}{section*.40}
